module gitlab.com/gitlab-org/gl-openshift/gitlab-runner-operator

go 1.17

require (
	github.com/go-logr/logr v0.3.0
	github.com/imdario/mergo v0.3.10
	github.com/stretchr/objx v0.3.0 // indirect
	github.com/stretchr/testify v1.7.0
	gopkg.in/yaml.v2 v2.3.0
	gopkg.in/yaml.v3 v3.0.0-20210107192922-496545a6307b // indirect
	gotest.tools v2.2.0+incompatible
	k8s.io/api v0.19.2
	k8s.io/apimachinery v0.19.2
	k8s.io/client-go v0.19.2
	sigs.k8s.io/controller-runtime v0.7.2
)

require (
	cloud.google.com/go v0.51.0 // indirect
	github.com/beorn7/perks v1.0.1 // indirect
	github.com/cespare/xxhash/v2 v2.1.1 // indirect
	github.com/davecgh/go-spew v1.1.1 // indirect
	github.com/evanphx/json-patch v4.9.0+incompatible // indirect
	github.com/fsnotify/fsnotify v1.4.9 // indirect
	github.com/go-logr/zapr v0.2.0 // indirect
	github.com/gogo/protobuf v1.3.1 // indirect
	github.com/golang/groupcache v0.0.0-20191227052852-215e87163ea7 // indirect
	github.com/golang/protobuf v1.4.2 // indirect
	github.com/google/go-cmp v0.5.2 // indirect
	github.com/google/gofuzz v1.1.0 // indirect
	github.com/google/uuid v1.1.1 // indirect
	github.com/googleapis/gnostic v0.5.1 // indirect
	github.com/hashicorp/golang-lru v0.5.4 // indirect
	github.com/json-iterator/go v1.1.10 // indirect
	github.com/matttproud/golang_protobuf_extensions v1.0.2-0.20181231171920-c182affec369 // indirect
	github.com/modern-go/concurrent v0.0.0-20180306012644-bacd9c7ef1dd // indirect
	github.com/modern-go/reflect2 v1.0.1 // indirect
	github.com/pkg/errors v0.9.1 // indirect
	github.com/pmezard/go-difflib v1.0.0 // indirect
	github.com/prometheus/client_golang v1.7.1 // indirect
	github.com/prometheus/client_model v0.2.0 // indirect
	github.com/prometheus/common v0.10.0 // indirect
	github.com/prometheus/procfs v0.1.3 // indirect
	github.com/spf13/pflag v1.0.5 // indirect
	go.uber.org/atomic v1.6.0 // indirect
	go.uber.org/multierr v1.5.0 // indirect
	go.uber.org/zap v1.15.0 // indirect
	golang.org/x/crypto v0.0.0-20200622213623-75b288015ac9 // indirect
	golang.org/x/net v0.0.0-20200707034311-ab3426394381 // indirect
	golang.org/x/oauth2 v0.0.0-20191202225959-858c2ad4c8b6 // indirect
	golang.org/x/sys v0.0.0-20200622214017-ed371f2e16b4 // indirect
	golang.org/x/text v0.3.3 // indirect
	golang.org/x/time v0.0.0-20200630173020-3af7569d3a1e // indirect
	gomodules.xyz/jsonpatch/v2 v2.1.0 // indirect
	google.golang.org/appengine v1.6.6 // indirect
	google.golang.org/protobuf v1.24.0 // indirect
	gopkg.in/inf.v0 v0.9.1 // indirect
	k8s.io/apiextensions-apiserver v0.19.2 // indirect
	k8s.io/component-base v0.19.2 // indirect
	k8s.io/klog/v2 v2.2.0 // indirect
	k8s.io/kube-openapi v0.0.0-20200805222855-6aeccd4b50c6 // indirect
	k8s.io/utils v0.0.0-20200912215256-4140de9c8800 // indirect
	sigs.k8s.io/structured-merge-diff/v4 v4.0.1 // indirect
	sigs.k8s.io/yaml v1.2.0 // indirect
)
